…
*Quick Exercise* Run the crossfold command again, but this time only 5 times. Then run it again, but 20 times. What happens to the RMSE?

Full Cross Validation
---------------------

The `crossv_mc` command provides for a generalization of the crossfold command. For this command, we can specify the proportion to be randomly held out in each iteration, via `test=p` where `p` is the proportion to be held out.

``` r
qf_cv<-qf%>%
  crossv_mc(n=1000,test=.2)
qf_cv
```

    ## # A tibble: 1,000 x 3
    ##             train           test   .id
    ##            <list>         <list> <chr>
    ##  1 <S3: resample> <S3: resample>  0001
    ##  2 <S3: resample> <S3: resample>  0002
    ##  3 <S3: resample> <S3: resample>  0003
    ##  4 <S3: resample> <S3: resample>  0004
    ##  5 <S3: resample> <S3: resample>  0005
    ##  6 <S3: resample> <S3: resample>  0006
    ##  7 <S3: resample> <S3: resample>  0007
    ##  8 <S3: resample> <S3: resample>  0008
    ##  9 <S3: resample> <S3: resample>  0009
    ## 10 <S3: resample> <S3: resample>  0010
    ## # ... with 990 more rows
The `qf_cv` dataset is a dataset of 1000x2 datasets, with each row containing a training and testing dataset. The testing dataset is .2 of the sample, but it's different each time.

Now we use the same approach, but with the MUCH larger qf\_cv dataset.

``` r
mod1_rmse_cv<-qf_cv %>% 
  mutate(train = map(train, as_tibble)) %>% ## Convert to tibbles
  mutate(model = map(train, ~ lm(mod1_formula, data = .)))%>%
  mutate(rmse = map2_dbl(model, test, rmse))%>% 
  select(.id, rmse) ## pull just id and rmse 

mod1_rmse_cv
```

    ## # A tibble: 1,000 x 2
    ##      .id      rmse
    ##    <chr>     <dbl>
    ##  1  0001 0.2963750
    ##  2  0002 0.2889695
    ##  3  0003 0.2910074
    ##  4  0004 0.2959773
    ##  5  0005 0.2911588
    ##  6  0006 0.2938672
    ##  7  0007 0.2958140
    ##  8  0008 0.6064119
    ##  9  0009 0.2901191
    ## 10  0010 0.2991592
    ## # ... with 990 more rows
…
mod2_rmse_cv<-qf_cv %>% 
  mutate(train = map(train, as_tibble)) %>% ## Convert to tibbles
  mutate(model = map(train, ~ lm(mod2_formula, data = .)))%>%
  mutate(rmse = map2_dbl(model, test, rmse))%>% 
  select(.id, rmse) ## pull just id and rmse 

mod2_rmse_cv      
```

    ## # A tibble: 1,000 x 2
    ##      .id      rmse
    ##    <chr>     <dbl>
    ##  1  0001 0.2969821
    ##  2  0002 0.2904207
    ##  3  0003 0.2965008
    ##  4  0004 0.2976711
    ##  5  0005 0.2928369
    ##  6  0006 0.2969187
    ##  7  0007 0.2961977
    ##  8  0008 0.6082246
    ##  9  0009 0.2925141
    ## 10  0010 0.3039671
    ## # ... with 990 more rows
…
